GTEX RNA-seq Liver-specific Process and TF Identification
…
# A tibble: 1 × 2
      n     nn
  <int>  <int>
1     1 198253

'select()' returned 1:many mapping between keys and columns
'select()' returned 1:many mapping between keys and columns
'select()' returned 1:many mapping between keys and columns

Further explore the contrasts

# A tibble: 110 × 4
# Groups:   contrast [11]
   contrast                        symbol  name                   log2FoldChange
   <chr>                           <chr>   <chr>                           <dbl>
 1 Heart_Atrial_Appendage_vs_Liver SLC27A5 solute carrier family…           7.77
 2 Heart_Atrial_Appendage_vs_Liver RDH16   retinol dehydrogenase…           9.76
 3 Heart_Atrial_Appendage_vs_Liver SLC22A1 solute carrier family…          11.8 
 4 Heart_Atrial_Appendage_vs_Liver CYP2E1  cytochrome P450 famil…          11.5 
 5 Heart_Atrial_Appendage_vs_Liver ASGR1   asialoglycoprotein re…          10.1 
 6 Heart_Atrial_Appendage_vs_Liver CYP2D6  cytochrome P450 famil…           8.74
 7 Heart_Atrial_Appendage_vs_Liver CPS1    carbamoyl-phosphate s…           8.98
 8 Heart_Atrial_Appendage_vs_Liver APOM    apolipoprotein M                 7.20
 9 Heart_Atrial_Appendage_vs_Liver ATF5    activating transcript…           7.22
10 Heart_Atrial_Appendage_vs_Liver MST1    macrophage stimulatin…           7.25
# ℹ 100 more rows
…
