…
### Further explore the contrasts

``` r
top_10_hits_summary <- tissue_DE_results_long %>%
  mutate("log2FoldChange" = -1*log2FoldChange) %>%
  group_by(contrast) %>%
  arrange(stat, log2FoldChange) %>%
  slice_head(n = 10) %>%
  relocate("contrast", "short_ensg", "symbol", "entrez", "name", "log2FoldChange")

top_10_hits_summary %>% dplyr::select("contrast", "symbol", "name", "log2FoldChange")
```

    # A tibble: 110 × 4
    # Groups:   contrast [11]
       contrast                        symbol  name                   log2FoldChange
       <chr>                           <chr>   <chr>                           <dbl>
     1 Heart_Atrial_Appendage_vs_Liver SLC27A5 solute carrier family…           7.77
     2 Heart_Atrial_Appendage_vs_Liver RDH16   retinol dehydrogenase…           9.76
     3 Heart_Atrial_Appendage_vs_Liver SLC22A1 solute carrier family…          11.8 
     4 Heart_Atrial_Appendage_vs_Liver CYP2E1  cytochrome P450 famil…          11.5 
     5 Heart_Atrial_Appendage_vs_Liver ASGR1   asialoglycoprotein re…          10.1 
     6 Heart_Atrial_Appendage_vs_Liver CYP2D6  cytochrome P450 famil…           8.74
     7 Heart_Atrial_Appendage_vs_Liver CPS1    carbamoyl-phosphate s…           8.98
     8 Heart_Atrial_Appendage_vs_Liver APOM    apolipoprotein M                 7.20
     9 Heart_Atrial_Appendage_vs_Liver ATF5    activating transcript…           7.22
    10 Heart_Atrial_Appendage_vs_Liver MST1    macrophage stimulatin…           7.25
    # ℹ 100 more rows
…
